02 Mini Project – Solveig Senf
…
[[1]]
# A tibble: 0 × 2
# ℹ 2 variables:  <lgl>,
#   This article needs to be updated. Please help update this article to reflect recent events or newly available information.  (May 2016) <lgl>

[[2]]
# A tibble: 74 × 6
   Institution                    `Location(s)` `Control[note 1]` `Type[note 2]`
   <chr>                          <chr>         <chr>             <chr>         
 1 Alexandria Technical and Comm… Alexandria    Public            Associate's c…
 2 Anoka Technical College        Anoka         Public            Associate's c…
 3 Anoka-Ramsey Community College Coon Rapids,… Public            Associate's c…
 4 Bemidji State University       Bemidji       Public            Master's univ…
 5 Central Lakes College          Brainerd, St… Public            Associate's c…
 6 Century College                White Bear L… Public            Associate's c…
 7 Dakota County Technical Colle… Rosemount     Public            Associate's c…
 8 Fond du Lac Tribal and Commun… Cloquet       Public            Tribal college
 9 Hennepin Technical College     Brooklyn Par… Public            Associate's c…
10 Minnesota North College        Hibbing, Ita… Public            Associate's c…
# ℹ 64 more rows
# ℹ 2 more variables: `Enrollment[14](fall 2023)` <chr>, Founded <chr>
…
[[4]]
# A tibble: 23 × 2
   Abbreviation `Accrediting agency`                                    
   <chr>        <chr>                                                   
 1 AAMFT        American Association for Marriage and Family Therapy    
 2 AANA         American Association of Nurse Anesthetists              
 3 ABA          American Bar Association                                
 4 ACICS        Accrediting Council for Independent Colleges and Schools
 5 ACME         Accreditation Commission for Midwifery Education        
 6 ACPE         Accreditation Council for Pharmacy Education            
 7 ADA          American Dental Association                             
 8 ADA          American Dietetic Association                           
 9 AOTA         American Occupational Therapy Association               
10 APA          American Psychological Association                      
# ℹ 13 more rows
…
[[8]]
# A tibble: 7 × 2
  `vteState of Minnesota`        `vteState of Minnesota`                        
  <chr>                          <chr>                                          
1 Saint Paul (capital)           "Saint Paul (capital)"                         
2 Topics                         "Index\nOutline\nBiking/Cycling\nCities\nClima…
3 Society                        "Abortion\nCulture\nCrime\nDemographics\nEcono…
4 Regions                        "Arrowhead\nBoundary Waters\nBuffalo Ridge\nCe…
5 Largest citiespop. over 25,000 "Andover\nApple Valley\nAustin\nBlaine\nBloomi…
6 Counties                       "Aitkin\nAnoka\nBecker\nBeltrami\nBenton\nBig …
7 Minnesota portal               "Minnesota portal"                             

# A tibble: 74 × 6
   Institution                    `Location(s)` `Control[note 1]` `Type[note 2]`
   <chr>                          <chr>         <chr>             <chr>         
 1 Alexandria Technical and Comm… Alexandria    Public            Associate's c…
 2 Anoka Technical College        Anoka         Public            Associate's c…
 3 Anoka-Ramsey Community College Coon Rapids,… Public            Associate's c…
 4 Bemidji State University       Bemidji       Public            Master's univ…
 5 Central Lakes College          Brainerd, St… Public            Associate's c…
 6 Century College                White Bear L… Public            Associate's c…
 7 Dakota County Technical Colle… Rosemount     Public            Associate's c…
 8 Fond du Lac Tribal and Commun… Cloquet       Public            Tribal college
 9 Hennepin Technical College     Brooklyn Par… Public            Associate's c…
10 Minnesota North College        Hibbing, Ita… Public            Associate's c…
# ℹ 64 more rows
# ℹ 2 more variables: `Enrollment[14](fall 2023)` <chr>, Founded <chr>

#combine steps using bow and scrape
session <- bow("https://en.wikipedia.org/wiki/List_of_colleges_and_universities_in_Minnesota", force = TRUE) 

result <- scrape(session) |>
  html_nodes(css = "table") |> 
  html_table(header = TRUE, fill = TRUE)

mn_data2 <- result[[2]] #scrape the correct table and name it mn_data2

print(mn_data2, n = 10) 

# A tibble: 74 × 6
   Institution                    `Location(s)` `Control[note 1]` `Type[note 2]`
   <chr>                          <chr>         <chr>             <chr>         
 1 Alexandria Technical and Comm… Alexandria    Public            Associate's c…
 2 Anoka Technical College        Anoka         Public            Associate's c…
 3 Anoka-Ramsey Community College Coon Rapids,… Public            Associate's c…
 4 Bemidji State University       Bemidji       Public            Master's univ…
 5 Central Lakes College          Brainerd, St… Public            Associate's c…
 6 Century College                White Bear L… Public            Associate's c…
 7 Dakota County Technical Colle… Rosemount     Public            Associate's c…
 8 Fond du Lac Tribal and Commun… Cloquet       Public            Tribal college
 9 Hennepin Technical College     Brooklyn Par… Public            Associate's c…
10 Minnesota North College        Hibbing, Ita… Public            Associate's c…
# ℹ 64 more rows
# ℹ 2 more variables: `Enrollment[14](fall 2023)` <chr>, Founded <chr>
#clean the table and name it mn_colleges
mn_colleges <- mn_data2 |>
  clean_names() |>
  rename(
    locations = location_s,
    public_private = control_note_1,
    type = type_note_2,
    enrollment = enrollment_14_fall_2023,
    date_founded = founded
  ) |>
  mutate(enrollment = parse_number(enrollment))

print(mn_colleges, n = 10) 

# A tibble: 74 × 6
   institution            locations public_private type  enrollment date_founded
   <chr>                  <chr>     <chr>          <chr>      <dbl> <chr>       
 1 Alexandria Technical … Alexandr… Public         Asso…       2865 1961[15]    
 2 Anoka Technical Colle… Anoka     Public         Asso…       1580 1967[16]    
 3 Anoka-Ramsey Communit… Coon Rap… Public         Asso…       7902 1965[17]    
 4 Bemidji State Univers… Bemidji   Public         Mast…       4023 1919[18]    
 5 Central Lakes College  Brainerd… Public         Asso…       4633 1938[19]    
 6 Century College        White Be… Public         Asso…       7646 1967[20]    
 7 Dakota County Technic… Rosemount Public         Asso…       2717 1970[21]    
 8 Fond du Lac Tribal an… Cloquet   Public         Trib…       1648 1987[22]    
 9 Hennepin Technical Co… Brooklyn… Public         Asso…       3974 1972[23]    
10 Minnesota North Colle… Hibbing,… Public         Asso…       3044 1916[24]    
# ℹ 64 more rows
…
[[17]]
# A tibble: 4 × 3
  vteNCAA Division III ice hocke…¹ vteNCAA Division III…² vteNCAA Division III…³
  <chr>                            <chr>                  <lgl>                 
1 Men                              "Conference of New En… NA                    
2 Women                            "Conference of New En… NA                    
3 NCAA                             "College ice hockey\n… NA                    
4 Former                           "Colonial Hockey Conf… NA                    
# ℹ abbreviated names: ¹​`vteNCAA Division III ice hockey conferences`,
#   ²​`vteNCAA Division III ice hockey conferences`,
#   ³​`vteNCAA Division III ice hockey conferences`

# A tibble: 13 × 8
   Institution `Location[a]` Founded Affiliation Undergradenrollment[…¹ Nickname
   <chr>       <chr>           <int> <chr>       <chr>                  <chr>   
 1 Augsburg U… Minneapolis      1869 Lutheran(E… 2,550                  Auggies 
 2 Bethel Uni… Arden Hills      1871 Converge    2,965                  Royals  
 3 Carleton C… Northfield       1866 Nonsectari… 2,105                  Knights 
 4 Concordia … Moorhead         1891 Lutheran (… 2,114                  Cobbers 
 5 Gustavus A… St. Peter        1862 Lutheran (… 2,230                  Golden …
 6 Hamline Un… St. Paul         1854 United Met… 2,184                  Pipers  
 7 Macalester… St. Paul         1874 Nonsectari… 2,146                  Scots   
 8 College of… St. Joseph       1913 Catholic(B… 1,958                  Bennies 
 9 St. Cather… St. Paul         1905 Catholic(C… 3,176                  Wildcats
10 Saint John… Collegeville     1857 Catholic(B… 1,754                  Johnnies
# ℹ 3 more rows
# ℹ abbreviated name: ¹​`Undergradenrollment[4]`
# ℹ 2 more variables: Joined <chr>, Colors <chr>
…
